{
    "pack": {
        "description": "Tale Of Kingdoms resources",
        "pack_format": 7,
        "_comment": "A pack_format of 4 requires json lang files. Note: we require v4 pack meta for all mods."
    }
}
